<?xml version="1.0" standalone="no"?>
<!DOCTYPE svg PUBLIC "-//W3C//DTD SVG 1.1//EN" "http://www.w3.org/Graphics/SVG/1.1/DTD/svg11.dtd" >
<svg xmlns="http://www.w3.org/2000/svg">
<metadata>Generated by IcoMoon</metadata>
<defs>
<font id="icomoon" horiz-adv-x="1024">
<font-face units-per-em="1024" ascent="960" descent="-64" />
<missing-glyph horiz-adv-x="1024" />
<glyph unicode="&#x20;" d="" horiz-adv-x="512" />
<glyph unicode="&#xe600;" d="M0 960h256v-256h-256zM384 896h640v-128h-640zM0 576h256v-256h-256zM384 512h640v-128h-640zM0 192h256v-256h-256zM384 128h640v-128h-640z" />
<glyph unicode="&#xe601;" d="M384 896h640v-128h-640v128zM384 512h640v-128h-640v128zM384 128h640v-128h-640v128zM0 832c0 70.692 57.308 128 128 128s128-57.308 128-128c0-70.692-57.308-128-128-128s-128 57.308-128 128zM0 448c0 70.692 57.308 128 128 128s128-57.308 128-128c0-70.692-57.308-128-128-128s-128 57.308-128 128zM0 64c0 70.692 57.308 128 128 128s128-57.308 128-128c0-70.692-57.308-128-128-128s-128 57.308-128 128z" />
<glyph unicode="&#xe602;" d="M622.826 257.264c-22.11 3.518-22.614 64.314-22.614 64.314s64.968 64.316 79.128 150.802c38.090 0 61.618 91.946 23.522 124.296 1.59 34.054 48.96 267.324-190.862 267.324s-192.45-233.27-190.864-267.324c-38.094-32.35-14.57-124.296 23.522-124.296 14.158-86.486 79.128-150.802 79.128-150.802s-0.504-60.796-22.614-64.314c-71.22-11.332-337.172-128.634-337.172-257.264h896c0 128.63-265.952 245.932-337.174 257.264z" />
<glyph unicode="&#xe603;" d="M734.994 154.626c-18.952 2.988-19.384 54.654-19.384 54.654s55.688 54.656 67.824 128.152c32.652 0 52.814 78.138 20.164 105.628 1.362 28.94 41.968 227.176-163.598 227.176-205.564 0-164.958-198.236-163.598-227.176-32.654-27.49-12.488-105.628 20.162-105.628 12.134-73.496 67.826-128.152 67.826-128.152s-0.432-51.666-19.384-54.654c-61.048-9.632-289.006-109.316-289.006-218.626h768c0 109.31-227.958 208.994-289.006 218.626zM344.054 137.19c44.094 27.15 97.626 52.308 141.538 67.424-15.752 22.432-33.294 52.936-44.33 89.062-15.406 12.566-27.944 30.532-35.998 52.602-8.066 22.104-11.122 46.852-8.608 69.684 1.804 16.392 6.478 31.666 13.65 45.088-4.35 46.586-7.414 138.034 52.448 204.732 23.214 25.866 52.556 44.46 87.7 55.686-6.274 64.76-39.16 140.77-166.454 140.77-205.564 0-164.958-198.236-163.598-227.176-32.654-27.49-12.488-105.628 20.162-105.628 12.134-73.496 67.826-128.152 67.826-128.152s-0.432-51.666-19.384-54.654c-61.048-9.634-289.006-109.318-289.006-218.628h329.596c4.71 3.074 9.506 6.14 14.458 9.19z" />
<glyph unicode="&#xe604;" d="M559.066 896c0 0-200.956 0-267.94 0-120.12 0-233.17-91.006-233.17-196.422 0-107.726 81.882-194.666 204.088-194.666 8.498 0 16.756 0.17 24.842 0.752-7.93-15.186-13.602-32.288-13.602-50.042 0-29.938 16.104-54.21 36.468-74.024-15.386 0-30.242-0.448-46.452-0.448-148.782 0.002-263.3-94.758-263.3-193.020 0-96.778 125.542-157.314 274.334-157.314 169.624 0 263.306 96.244 263.306 193.028 0 77.6-22.896 124.072-93.686 174.134-24.216 17.144-70.53 58.836-70.53 83.344 0 28.72 8.196 42.868 51.428 76.646 44.312 34.624 75.672 83.302 75.672 139.916 0 67.406-30.020 133.098-86.372 154.772h84.954l59.96 43.344zM465.48 240.542c2.126-8.972 3.284-18.206 3.284-27.628 0-78.2-50.392-139.31-194.974-139.31-102.842 0-177.116 65.104-177.116 143.3 0 76.642 92.126 140.444 194.964 139.332 24-0.254 46.368-4.116 66.67-10.69 55.826-38.826 95.876-60.762 107.172-105.004zM300.818 532.224c-69.038 2.064-134.636 77.226-146.552 167.86-11.916 90.666 34.37 160.042 103.388 157.99 69.010-2.074 134.638-74.814 146.558-165.458 11.906-90.66-34.39-162.458-103.394-160.392zM832 704v192h-64v-192h-192v-64h192v-192h64v192h192v64z" />
<glyph unicode="&#xe605;" d="M0.806 90.336c-0.244 2.532-0.452 5.070-0.584 7.63 0.13-2.56 0.34-5.098 0.584-7.63zM235.908 394.852c92.010-2.738 153.734 92.698 137.862 213.198-15.894 120.48-103.396 217.168-195.408 219.922-92.026 2.73-153.74-89.482-137.852-210 15.882-120.468 103.352-220.374 195.398-223.12zM1024 704v85.31c0 93.88-76.782 170.69-170.658 170.69h-682.656c-92.276 0-168.012-74.232-170.564-165.926 58.362 51.386 139.324 94.316 222.874 94.316 89.304 0 357.244 0 357.244 0l-79.948-67.618h-113.268c75.13-28.804 115.156-116.124 115.156-205.722 0-75.248-41.81-139.954-100.888-185.968-57.644-44.902-68.572-63.708-68.572-101.878 0-32.578 61.746-88 94.032-110.788 94.382-66.538 124.916-128.312 124.916-231.456 0-16.428-2.042-32.83-6.066-48.96h307.742c93.874 0 170.656 76.75 170.656 170.69v533.308h-192v-191.998h-64v192h-191.998v64h191.998v192h64v-192h192zM185.886 194.064c21.614 0 41.422 0.59 61.936 0.59-27.146 26.334-48.626 58.6-48.626 98.38 0 23.608 7.564 46.336 18.134 66.52-10.782-0.77-21.79-0.994-33.126-0.994-74.356 0-137.506 24.076-184.204 63.854v-67.242l0.006-201.73c53.44 25.374 116.888 40.622 185.88 40.622zM3.42 72.742c-1.112 5.458-1.966 11.006-2.542 16.634 0.574-5.628 1.43-11.176 2.542-16.634zM455.45 7.154c-15.058 58.806-68.454 87.964-142.888 139.568-27.072 8.732-56.894 13.874-88.894 14.208-89.618 0.964-173.108-34.942-220.216-88.372 15.92-77.706 85.034-136.558 167.234-136.558h286.444c1.816 11.128 2.696 22.632 2.696 34.432 0 12.534-1.534 24.792-4.376 36.722z" />
<glyph unicode="&#xe606;" d="M853.344 960h-682.66c-93.872 0-170.684-76.814-170.684-170.688v-682.626c0-93.938 76.812-170.686 170.684-170.686l682.66 0.002c93.876 0 170.656 76.746 170.656 170.688v682.622c0 93.874-76.782 170.688-170.656 170.688zM870.592 448h-166.592v-448h-192v448h-92.526v146.564h92.526v95.186c0 129.342 55.792 206.25 207.87 206.25h175.244v-158.57h-143.13c-42.482 0.070-47.752-22.152-47.752-63.512l-0.232-79.354h192l-25.408-146.564z" />
<glyph unicode="&#xe607;" d="M853.342 960h-682.656c-93.874 0-170.686-76.81-170.686-170.69v-682.622c0-93.938 76.812-170.688 170.686-170.688h682.656c93.876 0 170.658 76.75 170.658 170.69v682.62c0 93.88-76.782 170.69-170.658 170.69zM838.052 618.166c0.328-7.342 0.49-14.728 0.49-22.148 0-226.214-169.216-487.068-478.658-487.068-95.004 0-183.434 28.348-257.886 76.918 13.16-1.588 26.552-2.394 40.13-2.394 78.822 0 151.358 27.37 208.934 73.282-73.616 1.38-135.744 50.876-157.154 118.882 10.274-2 20.812-3.074 31.652-3.074 15.344 0 30.206 2.096 44.32 6.008-76.96 15.732-134.95 84.916-134.95 167.856 0 0.722 0 1.438 0.016 2.152 22.68-12.82 48.624-20.52 76.2-21.41-45.142 30.698-74.842 83.092-74.842 142.488 0 31.37 8.294 60.778 22.778 86.058 82.974-103.57 206.936-171.72 346.754-178.862-2.87 12.532-4.358 25.596-4.358 39.014 0 94.538 75.326 171.18 168.23 171.18 48.39 0 92.118-20.786 122.802-54.058 38.32 7.676 74.324 21.92 106.832 41.542-12.562-39.976-39.234-73.522-73.966-94.71 34.026 4.138 66.452 13.34 96.62 26.954-22.546-34.324-51.070-64.476-83.944-88.61z" />
<glyph unicode="&#xe608;" d="M136.294 209.070c-75.196 0-136.292-61.334-136.292-136.076 0-75.154 61.1-135.802 136.292-135.802 75.466 0 136.494 60.648 136.494 135.802-0.002 74.742-61.024 136.076-136.494 136.076zM0.156 612.070v-196.258c127.784 0 247.958-49.972 338.458-140.512 90.384-90.318 140.282-211.036 140.282-339.3h197.122c-0.002 372.82-303.282 676.070-675.862 676.070zM0.388 960v-196.356c455.782 0 826.756-371.334 826.756-827.644h196.856c0 564.47-459.254 1024-1023.612 1024z" />
<glyph unicode="&#xe609;" d="M853.34 960h-682.654c-93.876 0-170.686-76.812-170.686-170.688v-682.628c0-93.934 76.812-170.684 170.688-170.684h682.652c93.876 0 170.66 76.748 170.66 170.684v682.628c0 93.876-76.784 170.688-170.66 170.688zM278.944 128.752c-47.97 0-86.944 38.692-86.944 86.628 0 47.684 38.972 86.812 86.944 86.812 48.158 0 87.060-39.128 87.060-86.812-0.002-47.936-38.904-86.628-87.060-86.628zM497.468 128.004c0 81.81-31.808 158.818-89.46 216.444-57.714 57.75-134.376 89.626-215.904 89.626v125.186c237.652 0 431.126-193.442 431.126-431.254l-125.762-0.002zM719.628 128.004c0 291.062-236.658 527.94-527.376 527.94v125.248c360.002 0 652.946-293.124 652.946-653.192l-125.57 0.004z" />
<glyph unicode="&#xe60a;" d="M853.31 960h-682.62c-93.878 0-170.69-76.816-170.69-170.692v-682.62c0-93.938 76.812-170.688 170.69-170.688h682.62c93.878 0 170.69 76.75 170.69 170.69v682.618c0 93.876-76.812 170.692-170.69 170.692zM812.868 521.874c-33.958-191.296-223.708-353.296-280.78-390.31-57.088-37.006-109.154 14.822-128.038 53.994-21.616 44.708-86.41 286.94-103.368 307.020-16.964 20.038-67.876-20.080-67.876-20.080l-24.692 32.376c0 0 103.382 123.448 182.040 138.878 83.404 16.366 83.28-128.066 103.34-208.242 19.4-77.564 32.44-121.952 49.376-121.952 16.97 0 49.382 43.262 84.852 109.57 35.536 66.376-1.538 125.010-70.972 83.292 27.786 166.652 290.062 206.72 256.118 15.454z" />
<glyph unicode="&#xe60b;" d="M512 960c-282.77 0-512-229.23-512-512s229.23-512 512-512 512 229.23 512 512-229.23 512-512 512zM812.868 521.874c-33.958-191.296-223.708-353.296-280.78-390.31-57.088-37.006-109.154 14.822-128.038 53.994-21.616 44.708-86.41 286.94-103.368 307.020-16.964 20.038-67.876-20.080-67.876-20.080l-24.692 32.376c0 0 103.382 123.448 182.040 138.878 83.404 16.366 83.28-128.066 103.34-208.242 19.4-77.564 32.44-121.952 49.376-121.952 16.97 0 49.382 43.262 84.852 109.57 35.536 66.376-1.538 125.010-70.972 83.292 27.786 166.652 290.062 206.72 256.118 15.454z" />
<glyph unicode="&#xe60c;" d="M235.278 711.28c-50.792 0-94.484-16.806-131.084-50.416-38.086-35.852-57.14-80.66-57.14-134.436 0-35.852 10.376-69.462 31.294-100.832 18.674-29.126 38.18-47.806 63.778-56.024v-2.242c-25.598-10.448-36.966-36.59-36.966-78.418 0-32.124 11.372-56.022 36.966-71.708v-2.242c-70.654-23.146-102.992-66.094-102.992-128.83 0-54.534 23.748-94.488 70.066-119.878 36.59-20.172 83.578-30.254 140.346-30.254 138.17 0 207.406 57.882 207.406 173.664 0 72.446-53.322 116.882-160.128 133.316-24.646 3.726-43.286 12.696-55.982 26.89-9.708 9.708-14.542 19.418-14.542 29.126 0 27.632 14.958 43.696 44.82 48.176 45.558 6.714 82.728 27.824 111.486 63.296 28.75 35.48 43.13 77.118 43.13 124.916 0 14.938-4.518 30.996-10.488 48.172 19.418 4.488 33.050 8.594 43.292 12.332v115.392c-45.054-17.928-86.99-26.884-122.842-26.884-31.374 17.922-63.824 26.884-100.42 26.884zM247.602 152.23c62.744 0 94.104-19.042 94.104-57.14 0-40.336-28.754-60.492-86.264-60.492-65.724 0-98.586 19.422-98.586 58.254-0.002 39.59 30.244 59.378 90.746 59.378zM239.76 448c-47.054 0-70.586 25.764-70.586 77.308 0 55.262 23.532 82.906 70.586 82.906 22.402 0 39.958-8.596 52.652-25.768 10.458-15.69 15.69-34.36 15.69-56.022 0-52.278-22.786-78.424-68.342-78.424zM580.384 960c-21.656 0-40.14-8.214-55.454-24.648-15.314-16.436-22.97-36.216-22.97-59.376 0-22.41 7.658-41.82 22.97-58.258 15.308-16.434 33.792-24.64 55.454-24.64 20.91 0 39.028 8.208 54.34 24.64 15.312 16.438 22.96 35.848 22.96 58.258 0 23.16-7.648 42.944-22.96 59.376-15.318 16.434-33.43 24.648-54.34 24.648zM643.13 704.002h-126.606c1.496-14.336-0.64-36.042-0.64-71.14v-348.432c0-35.856 2.136-64.774 0.64-76.036h126.606c-1.5 16.376-5.394 44.668-5.394 82.758v343.946c-0.006 32.864 3.894 54.568 5.394 68.904zM922.336 315.8c-32.872 0-49.082 25.028-49.082 75.066v206.64h49.864c8.96 0 17.032 0.492 27.118-0.246 10.086-0.748 14.152-0.25 19.278-0.25v106.99h-96.258v47.616c0 17.922 2.816 34.302 5.054 44.542h-129.958c2.242-10.24 2.028-25.876 2.028-46.79v-45.368h-56.32v-106.988c15.364 2.24 29.090 3.356 38.796 3.356l17.524-1.118v-202.786c0-62.742 7.958-108.672 23.636-137.8 20.922-38.84 57.622-58.258 112.136-58.258 38.848 0 73.118 7.464 98.714 22.41v112.032c-20.474-12.7-39.382-19.048-62.53-19.048z" />
<glyph unicode="&#xe60d;" d="M263.472 200.632c0-27.052 22.894-40.582 68.668-40.582 40.064 0 60.088 14.042 60.088 42.134 0 26.538-21.846 39.796-65.544 39.796-42.146 0.004-63.212-13.776-63.212-41.348zM853.348 960h-682.66c-93.876 0-170.688-76.81-170.688-170.688v-682.626c0-93.936 76.812-170.686 170.688-170.686h682.66c93.868 0 170.652 76.75 170.652 170.688v682.624c0 93.878-76.782 170.688-170.652 170.688zM475.728 551.012c-7.284-2.604-17.688-5.458-31.212-8.586 4.16-11.966 6.246-23.152 6.246-33.554 0-33.292-10.018-62.298-30.044-87.012-20.030-24.708-45.912-39.406-77.646-44.086-20.804-3.126-31.208-14.312-31.208-33.558 0-6.762 3.378-13.53 10.144-20.29 8.844-9.886 21.848-16.132 39.018-18.734 74.39-11.442 111.586-42.394 111.586-92.854 0-80.642-48.124-120.962-144.362-120.962-39.542 0-72.056 7.026-97.544 21.070-32.258 17.688-48.376 45.52-48.376 83.5 0 43.704 24.192 73.616 72.564 89.738v1.56c-17.684 10.924-26.526 27.57-26.526 49.944 0 29.132 8.324 47.344 24.968 54.622v1.562c-16.646 5.724-31.474 18.732-44.48 39.024-14.564 21.852-21.85 45.26-21.85 70.23 0 37.458 13.27 68.67 39.792 93.64 25.496 23.414 55.928 35.116 91.306 35.116 25.494 0 49.158-6.238 71.010-18.722 24.97 0 53.842 6.24 86.626 18.722l-0.012-80.37zM602.178 281.006h-88.186c1.042 10.402 1.558 28.084 1.558 53.064v242.692c0 24.454-0.522 41.364-1.558 50.718h88.186c-1.042-9.884-1.562-26.27-1.562-49.164v-239.564c0-26.534 0.522-45.784 1.562-57.746zM596.318 705.518c-10.664-11.444-23.282-17.162-37.846-17.162-15.086 0-27.958 5.718-38.626 17.162-10.666 11.452-16.002 24.972-16.002 40.578 0 16.134 5.336 29.912 16.002 41.366 10.666 11.442 23.54 17.168 38.626 17.168 14.564 0 27.184-5.726 37.846-17.168 10.666-11.456 15.998-25.23 15.998-41.366 0-15.606-5.332-29.128-15.998-40.578zM841.69 291.152c-19.254-10.41-42.406-15.606-69.458-15.606-37.97 0-64.248 13.52-78.81 40.574-10.93 20.29-16.386 52.28-16.386 95.98v139.684h0.778v1.562l-11.706 0.782c-6.764 0-15.612-0.782-26.534-2.342v75.694h38.234v30.432c0 14.57-0.778 26.28-2.34 35.12h90.518c-1.55-9.88-2.336-21.066-2.336-33.552v-31.998h67.886v-75.692c-2.598 0-7.41 0.258-14.436 0.778-7.024 0.522-13.656 0.786-19.898 0.786h-33.554v-145.144c0-34.864 11.45-52.29 34.334-52.29 16.126 0 30.696 4.418 43.708 13.264v-78.032zM321.216 559.594c-32.776 0-49.164-19.254-49.164-57.746 0-35.902 16.388-53.848 49.164-53.848 31.736 0 47.602 18.208 47.602 54.626 0 15.090-3.64 28.094-10.922 39.022-8.846 11.962-21.074 17.946-36.68 17.946z" />
<glyph unicode="&#xe60e;" d="M853.348 960h-682.698c-94.246 0-170.65-76.418-170.65-170.682v-682.636c0-94.266 76.404-170.682 170.65-170.682h682.696c94.25 0 170.648 76.416 170.648 170.682l0.006 682.636c0 94.264-76.404 170.682-170.652 170.682zM896 311.902c0-136.99-111.486-247.902-249.444-247.902h-268.818c-137.856 0-249.738 110.912-249.738 247.902v272.098c0.096 137 111.88 248 249.738 248h125.868c137.952 0 248.398-103 248.394-240 1.802-25.694 24.922-48 51.292-48h43.052c27.574 0 49.656-28.934 49.656-56.312v-175.786zM704 320c0-35.2-28.8-64-64-64h-256c-35.2 0-64 28.8-64 64v0c0 35.2 28.8 64 64 64h256c35.2 0 64-28.8 64-64v0zM576 576c0-35.2-28.8-64-64-64h-128c-35.2 0-64 28.8-64 64v0c0 35.2 28.8 64 64 64h128c35.2 0 64-28.8 64-64v0z" />
<glyph unicode="&#xe60f;" d="M791.498 415.908c-1.294 129.682 105.758 191.876 110.542 194.966-60.152 88.020-153.85 100.078-187.242 101.472-79.742 8.074-155.596-46.948-196.066-46.948-40.368 0-102.818 45.754-168.952 44.552-86.916-1.292-167.058-50.538-211.812-128.38-90.304-156.698-23.126-388.84 64.89-515.926 43.008-62.204 94.292-132.076 161.626-129.58 64.842 2.588 89.362 41.958 167.756 41.958s100.428-41.958 169.050-40.67c69.774 1.296 113.982 63.398 156.692 125.796 49.39 72.168 69.726 142.038 70.924 145.626-1.548 0.706-136.060 52.236-137.408 207.134zM662.562 796.478c35.738 43.358 59.86 103.512 53.28 163.522-51.478-2.096-113.878-34.29-150.81-77.55-33.142-38.376-62.148-99.626-54.374-158.436 57.466-4.484 116.128 29.204 151.904 72.464z" />
<glyph unicode="&#xe610;" d="M864 640c-35.2 0-64-28.8-64-64v-256c0-35.2 28.8-64 64-64s64 28.8 64 64v256c0 35.2-28.8 64-64 64zM96 640c-35.2 0-64-28.8-64-64v-256c0-35.2 28.8-64 64-64s64 28.8 64 64v256c0 35.2-28.802 64-64 64zM192 224c0-53.020 42.98-96 96-96h32v-128c0-35.2 28.8-64 64-64s64 28.8 64 64v128h64v-128c0-35.2 28.802-64 64-64s64 28.8 64 64v128h32c53.020 0 96 42.98 96 96v352h-576v-352zM598.598 870.506l40.504 77.806c2.032 3.902 0.5 8.758-3.402 10.79s-8.758 0.5-10.79-3.402l-41.118-78.986c-32.198 12.448-67.194 19.286-103.792 19.286-36.596 0-71.592-6.838-103.796-19.286l-41.116 78.984c-2.032 3.902-6.886 5.434-10.79 3.402s-5.434-6.886-3.402-10.79l40.5-77.808c-90.63-41.018-156.24-127.584-167.62-230.504h572.44c-11.376 102.924-76.986 189.488-167.618 230.508zM352 689.6c-25.626 0-46.4 20.774-46.4 46.4s20.774 46.4 46.4 46.4 46.4-20.774 46.4-46.4c-0.002-25.626-20.774-46.4-46.4-46.4zM608 689.6c-25.626 0-46.402 20.774-46.402 46.4s20.778 46.4 46.402 46.4 46.398-20.774 46.398-46.4c0-25.626-20.772-46.4-46.398-46.4z" />
<glyph unicode="&#xe611;" d="M852 960h-680c-94.6 0-172-77.4-172-172v-680c0-94.6 77.4-172 172-172h680c94.6 0 172 77.4 172 172v680c0 94.6-77.4 172-172 172zM384 128h-128v448h128v-448zM320 640c-35.346 0-64 28.654-64 64s28.654 64 64 64 64-28.654 64-64-28.654-64-64-64zM832 128h-128v256c0 35.346-28.654 64-64 64s-64-28.654-64-64v-256h-128v448h128v-79.472c26.398 36.264 66.752 79.472 112 79.472 79.53 0 144-71.634 144-160v-288z" />
<glyph unicode="&#xe612;" d="M512 960c-282.77 0-512-229.23-512-512s229.226-512 512-512c282.77 0 512 229.23 512 512s-229.23 512-512 512zM561.644 275.882c-46.52 3.614-66.042 26.656-102.504 48.808-20.060-105.176-44.564-206.016-117.14-258.686-22.404 158.968 32.894 278.364 58.57 405.114-43.784 73.706 5.27 222.034 97.62 185.474 113.626-44.948-98.4-274.008 43.932-302.616 148.62-29.868 209.288 257.858 117.142 351.424-133.158 135.106-387.598 3.080-356.31-190.356 7.614-47.292 56.472-61.638 19.524-126.902-85.22 18.892-110.65 86.102-107.376 175.712 5.268 146.674 131.784 249.364 258.686 263.566 160.484 17.964 311.106-58.908 331.906-209.876 23.412-170.39-72.448-354.93-244.050-341.662z" />
<glyph unicode="&#xe613;" d="M853.35 960h-682.702c-94.25 0-170.648-76.42-170.648-170.686v-682.63c0-94.266 76.398-170.684 170.648-170.684h682.702c94.25 0 170.65 76.418 170.65 170.684v682.63c0 94.266-76.4 170.686-170.65 170.686zM561.644 275.882c-46.52 3.614-66.042 26.656-102.504 48.808-20.060-105.178-44.562-206.018-117.138-258.688-22.404 158.968 32.894 278.364 58.57 405.114-43.786 73.706 5.27 222.034 97.62 185.474 113.626-44.948-98.4-274.008 43.932-302.616 148.62-29.868 209.288 257.858 117.142 351.424-133.158 135.106-387.598 3.080-356.31-190.356 7.614-47.292 56.472-61.638 19.524-126.902-85.22 18.892-110.65 86.102-107.376 175.712 5.268 146.674 131.784 249.364 258.686 263.566 160.484 17.964 311.106-58.908 331.906-209.876 23.41-170.388-72.45-354.928-244.052-341.66z" />
<glyph unicode="&#xe614;" d="M574.925 397.875c-81.050-81.101-174.95-158.618-212.070-121.446-53.146 53.094-85.862 99.379-203.008 5.274s-27.187-156.877 24.32-208.384c59.392-59.341 280.781-3.123 499.661 215.706 218.778 218.829 275.098 440.269 215.654 499.661-51.456 51.507-114.176 141.414-208.333 24.32s-47.872-149.862 5.274-203.008c37.018-37.171-40.448-131.021-121.498-212.122z" />
<glyph unicode="&#xe615;" d="M758.784 233.062c-126.208 45.978-166.554 84.787-166.554 167.885 0 49.869 38.554 33.587 55.45 124.928 7.014 37.888 41.062 0.614 47.616 87.091 0 34.458-18.586 43.059-18.586 43.059s9.472 51.046 13.158 90.266c4.506 48.947-28.262 175.309-203.469 175.309-175.155 0-208.026-126.362-203.418-175.309 3.686-39.219 13.158-90.266 13.158-90.266s-18.637-8.55-18.637-43.059c6.502-86.477 40.55-49.203 47.565-87.091 16.947-91.341 55.501-75.059 55.501-124.928 0-83.098-40.346-121.907-166.554-167.885-126.669-46.080-208.896-93.133-208.896-125.235 0-32.051 0-107.776 0-107.776h962.56c0 0 0 75.725 0 107.776s-82.278 79.104-208.896 125.235z" />
<glyph unicode="&#xe616;" d="M1024 10.24c0 0-1.997 193.894-13.875 213.965-17.664 29.952-58.675 50.483-134.861 82.33-75.93 31.744-100.25 58.573-100.25 115.866 0 34.458 23.194 23.194 33.382 86.221 4.198 26.163 24.678 0.461 28.621 60.109 0 23.808-11.162 29.747-11.162 29.747s5.632 35.226 7.885 62.31c2.765 33.792-17.050 120.986-122.47 120.986s-125.133-87.245-122.419-120.986c2.202-27.085 7.834-62.31 7.834-62.31s-11.162-5.939-11.162-29.747c3.942-59.699 24.422-33.997 28.672-60.109 10.138-63.027 33.331-51.763 33.331-86.221 0-38.963-11.264-63.846-42.342-85.709 165.888-83.046 188.16-99.994 188.16-174.234v-152.218h230.656zM523.469 277.76c-101.325 42.291-133.632 78.029-133.632 154.47 0 45.875 30.925 30.925 44.493 114.995 5.581 34.867 32.973 0.563 38.144 80.128 0 31.744-14.899 39.629-14.899 39.629s7.578 46.95 10.547 83.098c3.686 44.954-22.733 161.28-163.277 161.28s-166.912-116.275-163.226-161.28c2.97-36.147 10.496-83.098 10.496-83.098s-14.848-7.885-14.848-39.629c5.274-79.616 32.563-45.312 38.195-80.128 13.568-84.070 44.493-69.069 44.493-114.995 0-76.442-32.41-112.179-133.632-154.47-30.874-12.902-86.323-32.922-86.323-80.947v-186.573h711.373c0 0 0 110.336 0 139.827 0 43.878-86.374 85.197-187.904 127.693z" />
<glyph unicode="&#xe617;" d="M633.702 233.062c-127.539 45.978-168.294 84.787-168.294 167.885 0 49.869 38.963 33.587 56.064 124.928 7.117 37.888 41.523 0.614 48.026 87.091 0 34.458-18.739 43.059-18.739 43.059s9.574 51.046 13.261 90.266c4.608 48.947-28.57 175.309-205.619 175.309s-210.227-126.362-205.619-175.309c3.738-39.27 13.312-90.266 13.312-90.266s-18.79-8.55-18.79-43.059c6.605-86.477 41.011-49.203 48.026-87.091 17.152-91.341 56.115-75.059 56.115-124.928 0-83.098-40.806-121.907-168.346-167.885-15.36-5.478-51.968-14.080-83.098-27.546v-205.517h819.2c0 0 0 75.725 0 107.776s-57.498 79.155-185.498 125.286zM870.4 512v153.6h-102.4v-153.6h-153.6v-102.4h153.6v-153.6h102.4v153.6h153.6v102.4h-153.6z" />
<glyph unicode="&#xe618;" d="M898.304 180.838l-193.485 193.485c29.184 47.974 45.978 104.192 45.978 164.454 0 174.899-151.603 326.502-326.554 326.502-174.899 0-316.723-141.824-316.723-316.723 0-174.95 151.552-326.554 326.502-326.554 58.163 0 112.64 15.77 159.488 43.162l194.509-194.56c19.098-19.046 49.92-19.046 68.915 0l48.282 48.23c18.995 19.046 12.083 43.008-6.912 62.003zM205.005 548.557c0 121.088 98.15 219.29 219.238 219.29 121.139 0 229.069-107.93 229.069-229.069s-98.15-219.29-219.29-219.29-229.018 107.93-229.018 229.069z" />
<glyph unicode="&#xe619;" d="M160.461 620.032c47.821 37.12 87.45 11.571 140.339-49.664 5.99-6.861 13.978 1.178 18.483 5.12 4.506 3.994 74.342 66.765 77.722 69.683 3.43 3.021 7.526 8.653 2.099 14.95s-25.293 32-38.042 48.64c-92.57 121.088 253.235 203.213 200.090 204.493-26.982 0.717-135.475 1.946-151.654 0.256-65.69-6.963-148.173-68.352-189.696-96.922-54.272-37.325-74.598-58.982-77.926-62.003-15.36-13.466-2.458-44.39-30.31-68.813-29.44-25.805-47.77-6.298-64.819-21.248-8.499-7.475-32.102-25.139-38.912-31.13-6.758-5.939-7.987-16.026-1.075-24.115 0 0 64.666-71.475 70.144-77.773 5.427-6.298 20.019-11.622 29.082-3.635 9.062 7.936 32.307 28.365 36.25 31.846 3.994 3.43-2.56 44.186 18.227 60.314zM452.762 593.613c-6.144 7.117-13.722 7.27-20.326 1.434l-73.472-64.051c-5.734-5.12-6.502-14.541-1.331-20.48l424.653-483.226c9.882-11.469 27.085-12.646 38.502-2.714l49.715 41.574c11.315 9.933 12.493 27.341 2.611 38.758l-420.352 488.704zM1018.982 799.283c-3.789 25.293-16.896 19.968-23.706 9.216-6.707-10.701-36.915-56.371-49.306-77.005-12.288-20.582-42.496-60.979-99.021-21.094-58.778 41.574-38.298 70.605-28.109 90.112 10.291 19.61 41.882 74.496 46.49 81.408 4.506 6.912-0.819 26.982-18.995 18.586-18.278-8.448-129.178-52.531-144.589-115.712-15.718-64.358 13.21-121.805-43.52-178.893l-68.71-71.68 69.018-80.282 84.685 80.435c20.224 20.275 63.283 39.987 102.298 31.13 83.61-18.944 129.178 12.493 156.723 64.358 24.678 46.438 20.582 144.128 16.742 169.421zM140.288 99.789c-10.65-10.752-10.65-28.16 0-38.861l48.691-47.616c10.65-10.701 27.546-6.195 38.195 4.506l251.238 247.040-77.005 87.706-261.12-252.774z" />
<glyph unicode="&#xe61a;" d="M512 563.2c-84.787 0-153.6-68.813-153.6-153.6 0-84.838 68.813-153.6 153.6-153.6 84.838 0 153.6 68.762 153.6 153.6 0 84.787-68.762 153.6-153.6 153.6zM921.6 716.8h-122.829c-16.896 0-35.123 13.107-40.448 29.133l-31.744 95.283c-5.427 16.077-23.603 29.184-40.499 29.184h-348.16c-16.896 0-35.123-13.107-40.397-29.133l-31.846-95.334c-5.325-16.026-23.501-29.133-40.397-29.133h-122.88c-56.32 0-102.4-46.080-102.4-102.4v-460.8c0-56.32 46.080-102.4 102.4-102.4h819.2c56.371 0 102.4 46.080 102.4 102.4v460.8c0 56.32-46.029 102.4-102.4 102.4zM512 153.6c-141.414 0-256 114.586-256 256 0 141.363 114.586 256 256 256 141.363 0 256-114.637 256-256 0-141.414-114.637-256-256-256zM885.76 542.822c-19.763 0-35.789 16.026-35.789 35.84s16.026 35.84 35.789 35.84c19.814 0 35.84-16.026 35.84-35.84s-16.026-35.84-35.84-35.84z" />
<glyph unicode="&#xe61b;" d="M809.011 563.098h-92.211v71.68c0 148.326-68.301 235.52-204.8 235.52-136.448 0-204.8-87.194-204.8-235.52v-71.68h-102.4c-28.262 0-51.2-33.126-51.2-61.44v-399.36c0-28.16 21.965-58.317 48.742-66.918l61.235-19.814c26.778-8.653 71.731-15.718 99.942-15.718h296.96c28.16 0 73.165 7.066 99.942 15.718l61.235 19.814c26.829 8.602 48.742 38.758 48.742 66.918v399.36c0 28.314-33.126 61.44-61.389 61.44zM409.6 655.258c0 73.984 40.858 112.64 102.4 112.64 61.594 0 102.4-38.656 102.4-112.64v-92.16h-204.8v92.16z" />
<glyph unicode="&#xe61c;" d="M808.96 563.2h-92.16v122.88c0 148.326-68.352 235.52-204.8 235.52-136.499 0-204.8-87.194-204.8-235.52v-20.48h102.4v40.96c0 73.984 40.806 112.64 102.4 112.64 61.542 0 102.4-38.656 102.4-112.64v-143.36h-409.6c-28.314 0-51.2-33.126-51.2-61.44v-399.36c0-28.16 21.965-58.266 48.742-66.918l61.235-19.814c26.829-8.602 71.782-15.667 99.942-15.667h296.96c28.211 0 73.165 7.066 99.942 15.718l61.235 19.814c26.778 8.602 48.742 38.707 48.742 66.867v399.36c0 28.314-33.126 61.44-61.44 61.44z" />
<glyph unicode="&#xe61d;" d="M564.275 102.4h-411.699v716.8h411.648v-153.6h101.376v153.6c0 56.32-46.029 102.4-102.4 102.4h-409.6c-56.32 0-102.4-46.080-102.4-102.4v-716.8c0-56.32 46.080-102.4 102.4-102.4h409.6c56.371 0 102.4 46.080 102.4 102.4v102.4h-101.325v-102.4zM972.8 435.2l-203.725 199.68v-122.88h-460.8v-153.6h460.8v-122.88l203.725 199.68z" />
<glyph unicode="&#xe61e;" d="M870.4 921.6h-460.8c-56.32 0-101.376-46.080-101.376-102.4v-153.6h101.376v153.6h460.8v-716.8h-460.8v102.4h-101.376v-102.4c0-56.32 45.056-102.4 101.376-102.4h460.8c56.32 0 102.4 46.080 102.4 102.4v716.8c0 56.32-46.080 102.4-102.4 102.4zM512 235.52l204.8 199.68-204.8 199.68v-122.88h-460.8v-153.6h460.8v-122.88z" />
<glyph unicode="&#xe61f;" d="M256 307.2h-51.2c-28.262 0-51.2-22.886-51.2-51.2s22.938-51.2 51.2-51.2h51.2c28.262 0 51.2 22.886 51.2 51.2s-22.938 51.2-51.2 51.2zM256 512h-51.2c-28.262 0-51.2-22.938-51.2-51.2s22.938-51.2 51.2-51.2h51.2c28.262 0 51.2 22.938 51.2 51.2s-22.938 51.2-51.2 51.2zM256 716.8h-51.2c-28.262 0-51.2-22.938-51.2-51.2s22.938-51.2 51.2-51.2h51.2c28.262 0 51.2 22.938 51.2 51.2s-22.938 51.2-51.2 51.2zM460.8 614.4h358.4c28.314 0 51.2 22.938 51.2 51.2s-22.886 51.2-51.2 51.2h-358.4c-28.262 0-51.2-22.938-51.2-51.2s22.938-51.2 51.2-51.2zM819.2 512h-358.4c-28.262 0-51.2-22.938-51.2-51.2s22.938-51.2 51.2-51.2h358.4c28.314 0 51.2 22.938 51.2 51.2s-22.886 51.2-51.2 51.2zM819.2 307.2h-358.4c-28.262 0-51.2-22.886-51.2-51.2s22.938-51.2 51.2-51.2h358.4c28.314 0 51.2 22.886 51.2 51.2s-22.886 51.2-51.2 51.2z" />
<glyph unicode="&#xe620;" d="M358.4 512h-307.2c-28.262 0-51.2-22.938-51.2-51.2s22.938-51.2 51.2-51.2h307.2c28.262 0 51.2 22.938 51.2 51.2s-22.938 51.2-51.2 51.2zM358.4 307.2h-307.2c-28.262 0-51.2-22.886-51.2-51.2s22.938-51.2 51.2-51.2h307.2c28.262 0 51.2 22.886 51.2 51.2s-22.938 51.2-51.2 51.2zM993.28 512h-174.080v174.080c0 28.262-22.886 30.72-51.2 30.72s-51.2-2.458-51.2-30.72v-174.080h-168.96c-28.314 0-30.72-22.938-30.72-51.2s2.458-51.2 30.771-51.2h168.909v-174.080c0-28.262 22.886-30.72 51.2-30.72s51.2 2.458 51.2 30.72v174.080h174.080c28.262 0 30.72 22.938 30.72 51.2s-2.458 51.2-30.72 51.2zM358.4 716.8h-307.2c-28.262 0-51.2-22.938-51.2-51.2s22.938-51.2 51.2-51.2h307.2c28.262 0 51.2 22.938 51.2 51.2s-22.938 51.2-51.2 51.2z" />
<glyph unicode="&#xe621;" d="M819.2 512h-614.4c-28.262 0-51.2-22.938-51.2-51.2s22.938-51.2 51.2-51.2h614.4c28.314 0 51.2 22.938 51.2 51.2s-22.886 51.2-51.2 51.2zM204.8 614.4h614.4c28.314 0 51.2 22.938 51.2 51.2s-22.886 51.2-51.2 51.2h-614.4c-28.262 0-51.2-22.938-51.2-51.2s22.938-51.2 51.2-51.2zM819.2 307.2h-614.4c-28.262 0-51.2-22.886-51.2-51.2s22.938-51.2 51.2-51.2h614.4c28.314 0 51.2 22.886 51.2 51.2s-22.886 51.2-51.2 51.2z" />
<glyph unicode="&#xe622;" d="M153.6 573.44c-62.208 0-112.64-50.432-112.64-112.64s50.432-112.64 112.64-112.64 112.64 50.432 112.64 112.64c0 62.208-50.432 112.64-112.64 112.64zM512 573.44c-62.208 0-112.64-50.432-112.64-112.64s50.432-112.64 112.64-112.64 112.589 50.432 112.589 112.64c0 62.208-50.381 112.64-112.589 112.64zM870.4 573.44c-62.208 0-112.64-50.432-112.64-112.64s50.432-112.64 112.64-112.64 112.64 50.432 112.64 112.64c0 62.208-50.432 112.64-112.64 112.64z" />
<glyph unicode="&#xe623;" d="M1024 352l-192 192v288h-128v-160l-192 192-512-512v-32h128v-320h320v192h128v-192h320v320h128z" />
<glyph unicode="&#xe624;" d="M304 352c0-114.876 93.124-208 208-208s208 93.124 208 208-93.124 208-208 208-208-93.124-208-208zM960 704h-224c-16 64-32 128-96 128h-256c-64 0-80-64-96-128h-224c-35.2 0-64-28.8-64-64v-576c0-35.2 28.8-64 64-64h896c35.2 0 64 28.8 64 64v576c0 35.2-28.8 64-64 64zM512 68c-156.85 0-284 127.148-284 284 0 156.85 127.15 284 284 284 156.852 0 284-127.15 284-284 0-156.852-127.146-284-284-284zM960 512h-128v64h128v-64z" />
<glyph unicode="&#xe625;" d="M981.188 799.892c-143.632 20.65-302.332 32.108-469.186 32.108-166.86 0-325.556-11.458-469.194-32.108-27.53-107.726-42.808-226.75-42.808-351.892 0-125.14 15.278-244.166 42.808-351.89 143.638-20.652 302.336-32.11 469.194-32.11 166.854 0 325.552 11.458 469.186 32.11 27.532 107.724 42.812 226.75 42.812 351.89 0 125.142-15.28 244.166-42.812 351.892zM384.002 256v384l320-192-320-192z" />
<glyph unicode="&#xe626;" d="M437.006 141.838c0-75.068-46.39-134.392-177.758-139.176-76.984 43.786-141.49 106.952-186.908 182.866 23.69 58.496 97.692 103.046 182.316 102.114 24.022-0.252 46.41-4.114 66.744-10.7 55.908-38.866 101-63.152 112.324-107.448 2.114-8.964 3.282-18.206 3.282-27.656zM512 960c-147.94 0-281.196-62.77-374.666-163.098 36.934 20.452 80.538 32.638 126.902 32.638 67.068 0 256.438 0 256.438 0l-57.304-60.14h-67.31c47.496-27.212 72.752-83.248 72.752-145.012 0-56.692-31.416-102.38-75.78-137.058-43.28-33.802-51.492-47.966-51.492-76.734 0-24.542 51.722-61.098 75.5-78.936 82.818-62.112 99.578-101.184 99.578-178.87 0-78.726-68.936-157.104-185.866-183.742 56.348-21.338 117.426-33.048 181.248-33.048 282.77 0 512 229.23 512 512s-229.23 512-512 512zM768 576v-128h-64v128h-128v64h128v128h64v-128h128v-64h-128zM365.768 620.528c11.922-90.776-27.846-149.19-96.934-147.134-69.126 2.082-134.806 65.492-146.74 156.242-11.928 90.788 34.418 160.254 103.53 158.196 69.090-2.074 128.22-76.542 140.144-167.304zM220.886 317.932c-74.68 0-138.128-25.768-182.842-63.864-24.502 59.82-38.044 125.29-38.044 193.932 0 56.766 9.256 111.368 26.312 162.396 7.374-99.442 77.352-176.192 192.97-176.192 8.514 0 16.764 0.442 24.874 1.022-7.95-15.23-13.622-32.19-13.622-49.982 0-29.97 16.488-47.070 36.868-66.894-15.402 0-30.27-0.418-46.516-0.418z" />
<glyph unicode="&#xe627;" d="M1024 765.582c-37.676-16.708-78.164-28.002-120.66-33.080 43.372 26 76.686 67.17 92.372 116.23-40.596-24.078-85.556-41.56-133.41-50.98-38.32 40.83-92.922 66.34-153.346 66.34-116.022 0-210.088-94.058-210.088-210.078 0-16.466 1.858-32.5 5.44-47.878-174.6 8.764-329.402 92.4-433.018 219.506-18.084-31.028-28.446-67.116-28.446-105.618 0-72.888 37.088-137.192 93.46-174.866-34.438 1.092-66.832 10.542-95.154 26.278-0.020-0.876-0.020-1.756-0.020-2.642 0-101.788 72.418-186.696 168.522-206-17.626-4.8-36.188-7.372-55.348-7.372-13.538 0-26.698 1.32-39.528 3.772 26.736-83.46 104.32-144.206 196.252-145.896-71.9-56.35-162.486-89.934-260.916-89.934-16.958 0-33.68 0.994-50.116 2.94 92.972-59.61 203.402-94.394 322.042-94.394 386.422 0 597.736 320.124 597.736 597.744 0 9.108-0.206 18.168-0.61 27.18 41.056 29.62 76.672 66.62 104.836 108.748z" />
<glyph unicode="&#xe628;" d="M512 960c-282.77 0-512-229.23-512-512s229.23-512 512-512 512 229.23 512 512-229.23 512-512 512zM806.242 598.912c0.292-6.508 0.442-13.056 0.442-19.638 0-200.622-152.708-431.964-431.958-431.964-85.736 0-165.536 25.136-232.726 68.214 11.876-1.408 23.962-2.126 36.216-2.126 71.13 0 136.59 24.276 188.55 64.994-66.434 1.22-122.5 45.122-141.824 105.432 9.274-1.768 18.784-2.722 28.566-2.722 13.846 0 27.258 1.856 39.998 5.324-69.452 13.952-121.786 75.312-121.786 148.868 0 0.64 0 1.278 0.016 1.91 20.47-11.37 43.878-18.2 68.764-18.988-40.74 27.222-67.54 73.692-67.54 126.368 0 27.822 7.488 53.904 20.556 76.324 74.878-91.854 186.748-152.292 312.924-158.628-2.588 11.118-3.93 22.702-3.93 34.604 0 83.84 67.98 151.812 151.818 151.812 43.666 0 83.124-18.436 110.818-47.94 34.58 6.808 67.074 19.442 96.412 36.84-11.336-35.454-35.41-65.206-66.752-83.994 30.71 3.668 59.968 11.832 87.194 23.904-20.35-30.448-46.090-57.186-75.758-78.594z" />
<glyph unicode="&#xe629;" d="M0 403.59c0-46.398 4.34-88.38 13.022-125.934 8.678-37.554 20.696-70.184 36.052-97.892s34.884-52.078 58.586-73.108c23.7-21.032 49.406-38.224 77.112-51.576 27.706-13.35 59.336-24.198 94.888-32.546 35.552-8.346 71.856-14.188 108.91-17.528 37.054-3.338 77.78-5.006 122.178-5.006 44.732 0 85.628 1.668 122.68 5.006 37.054 3.34 73.442 9.184 109.16 17.528s67.512 19.192 95.388 32.546c27.876 13.354 53.746 30.544 77.616 51.576 23.87 21.030 43.566 45.404 59.086 73.108s27.622 60.336 36.302 97.892c8.68 37.556 13.020 79.536 13.020 125.934 0 82.788-27.708 154.394-83.118 214.816 3.004 8.012 5.758 17.108 8.262 27.29s4.84 24.702 7.010 43.564c2.17 18.862 1.336 40.642-2.504 65.346-3.838 24.704-10.932 49.906-21.284 75.612l-7.51 1.502c-5.342 1-14.106 0.75-26.29-0.752s-26.372-4.506-42.562-9.014c-16.19-4.506-37.054-13.186-62.592-26.038s-52.494-28.958-80.87-48.32c-48.736 13.352-115.668 20.030-200.792 20.030-84.792 0-151.556-6.678-200.294-20.030-28.376 19.362-55.5 35.468-81.37 48.32s-46.484 21.532-61.84 26.038c-15.354 4.508-29.71 7.428-43.062 8.764-13.354 1.336-21.784 1.752-25.288 1.252s-6.26-1.086-8.262-1.752c-10.348-25.706-17.442-50.906-21.28-75.612-3.838-24.704-4.674-46.486-2.504-65.346s4.508-33.382 7.010-43.564c2.504-10.182 5.258-19.278 8.262-27.29-55.414-60.422-83.122-132.026-83.122-214.816zM125.684 277.906c0 48.070 21.866 92.136 65.596 132.194 13.018 12.020 28.208 21.114 45.566 27.292 17.358 6.176 36.97 9.68 58.836 10.516 21.866 0.834 42.812 0.668 62.842-0.502 20.028-1.168 44.732-2.754 74.108-4.756 29.376-2.004 54.748-3.004 76.112-3.004 21.366 0 46.736 1 76.112 3.004 29.378 2.002 54.078 3.588 74.11 4.756 20.030 1.17 40.974 1.336 62.842 0.502 21.866-0.836 41.476-4.34 58.838-10.516 17.356-6.176 32.544-15.27 45.564-27.292 43.73-39.394 65.598-83.456 65.598-132.194 0-28.712-3.59-54.162-10.768-76.364-7.178-22.2-16.358-40.81-27.542-55.83s-26.704-27.79-46.568-38.306c-19.862-10.516-39.222-18.61-58.084-24.288-18.862-5.674-43.066-10.098-72.608-13.27-29.546-3.172-55.916-5.092-79.118-5.758-23.2-0.668-52.66-1.002-88.378-1.002s-65.178 0.334-88.378 1.002c-23.2 0.666-49.574 2.586-79.116 5.758s-53.744 7.596-72.606 13.27c-18.86 5.678-38.222 13.774-58.084 24.288s-35.386 23.282-46.568 38.306c-11.182 15.022-20.364 33.63-27.54 55.83-7.178 22.202-10.766 47.656-10.766 76.364zM640 288c0 53.019 28.654 96 64 96s64-42.981 64-96c0-53.019-28.654-96-64-96s-64 42.981-64 96zM256 288c0 53.019 28.654 96 64 96s64-42.981 64-96c0-53.019-28.654-96-64-96s-64 42.981-64 96z" />
<glyph unicode="&#xe62a;" d="M512 128.108c-19.154 0-38.308 9.916-58.142 29.75-7.81 7.81-7.81 20.474 0 28.286 7.81 7.808 20.474 7.808 28.286 0 12.206-12.21 21.972-18.144 29.856-18.144 7.882 0 17.65 5.934 29.858 18.142 7.812 7.808 20.472 7.808 28.286 0 7.81-7.81 7.81-20.474 0-28.286-19.836-19.832-38.99-29.748-58.144-29.748zM0 434.508c0-49.892 4.266-95.122 12.8-135.682s20.534-75.74 36-105.532c15.466-29.792 35.022-55.904 58.666-78.34s49.332-40.92 77.066-55.458c27.734-14.536 59.466-26.296 95.2-35.266 35.732-8.974 72.088-15.256 109.066-18.846s77.69-5.384 122.134-5.384c44.444 0 85.242 1.79 122.398 5.38s73.602 9.872 109.332 18.846c35.734 8.974 67.558 20.73 95.468 35.266 27.91 14.538 53.778 33.026 77.598 55.458 23.824 22.436 43.47 48.548 58.934 78.34 15.47 29.794 27.56 64.974 36.27 105.532 8.71 40.56 13.066 85.788 13.066 135.68 0 89.38-27.736 166.372-83.2 230.982 3.2 8.616 5.954 18.486 8.266 29.614 2.308 11.128 4.532 26.832 6.664 47.112 2.138 20.282 1.336 43.704-2.398 70.264-3.734 26.564-10.754 53.664-21.066 81.302l-8 1.618c-5.332 1.076-14.042 0.718-26.132-1.080-12.086-1.794-26.222-5.022-42.398-9.69-16.176-4.664-37.066-13.908-62.668-27.728-25.598-13.818-52.62-31.318-81.066-52.496-48.356 14.718-115.020 30.116-200 30.116-84.976 0-151.822-15.396-200.53-30.114-28.446 21.18-55.556 38.588-81.334 52.228-25.78 13.642-46.402 22.974-61.868 27.998-15.468 5.024-29.778 8.256-42.934 9.69-13.156 1.436-21.602 1.886-25.334 1.346-3.732-0.538-6.488-1.166-8.266-1.884-10.314-27.64-17.424-54.74-21.336-81.304-3.91-26.56-4.8-49.892-2.666-69.992 2.134-20.102 4.444-35.898 6.934-47.382 2.49-11.486 5.334-21.358 8.534-29.614-55.466-64.25-83.2-141.242-83.2-230.98zM136.536 320.596c0 58.022 21.332 110.638 64 157.856 12.8 14.406 27.646 25.312 44.534 32.712 16.89 7.402 36.088 11.606 57.6 12.606s42.044 0.8 61.6-0.6c19.556-1.402 43.734-3.302 72.534-5.702 28.798-2.404 53.688-3.602 74.666-3.602 20.976 0 45.868 1.2 74.664 3.602 28.806 2.4 52.982 4.3 72.536 5.702 19.56 1.4 40.090 1.6 61.602 0.6 21.512-1.002 40.802-5.204 57.868-12.606 17.066-7.4 32-18.306 44.8-32.712 42.664-47.218 64-99.834 64-157.856 0-34.012-3.554-64.324-10.668-90.934-7.11-26.612-16.090-48.916-26.934-66.922-10.844-18.008-26.048-33.218-45.598-45.62-19.558-12.406-38.492-22.010-56.8-28.81-18.312-6.8-41.958-12.104-70.934-15.906-28.982-3.796-54.934-6.102-77.872-6.9-22.934-0.8-51.82-1.2-86.664-1.2s-63.644 0.402-86.4 1.2c-22.756 0.798-48.622 3.104-77.6 6.9-28.978 3.802-52.622 9.104-70.934 15.906-18.31 6.802-37.244 16.404-56.8 28.81-19.556 12.404-34.756 27.612-45.6 45.62-10.846 18.006-19.824 40.31-26.934 66.922-7.11 26.61-10.666 56.922-10.666 90.934zM256 351.996c0 53.019 28.654 96 64 96s64-42.981 64-96c0-53.019-28.654-96-64-96s-64 42.981-64 96zM640 351.996c0 53.019 28.654 96 64 96s64-42.981 64-96c0-53.019-28.654-96-64-96s-64 42.981-64 96z" />
<glyph unicode="&#xe62b;" d="M957.796 576h-57.406c-35.166 0-65.988 29.742-68.39 64v0c0.004 182.668-147.258 320-331.19 320h-167.824c-183.812 0-332.856-148-332.986-330.666v-362.798c0-182.654 149.174-330.536 332.984-330.536h358.42c183.948 0 332.596 147.882 332.596 330.536v234.382c0 36.502-29.44 75.082-66.204 75.082zM320 704h192c35.2 0 64-28.8 64-64s-28.8-64-64-64h-192c-35.2 0-64 28.8-64 64s28.8 64 64 64zM704 192h-384c-35.2 0-64 28.8-64 64s28.8 64 64 64h384c35.2 0 64-28.8 64-64s-28.8-64-64-64z" />
<glyph unicode="&#xe62c;" d="M848 320l-14.858 416.020c-0.628 17.59 13.258 31.98 30.858 31.98h128c17.6 0 29.468-14.176 26.376-31.502l-74.376-416.498zM960 184c0-30.8-25.2-56-56-56h-16c-30.8 0-56 25.2-56 56v16c0 30.8 25.2 56 56 56h16c30.8 0 56-25.2 56-56v-16zM384 768c-212.078 0-384-143.268-384-320 0-176.73 171.922-320 384-320s384 143.27 384 320c0 176.732-171.922 320-384 320zM640 512h-74.262l-117.738-117.74v-74.26h96v-64h-256v64h96v74.26l-181.74 181.74h-42.062v64h191.606v-64h-42.064l106.26-106.26 32 32v74.26h192v-64z" />
<glyph unicode="&#xe62d;" d="M567.656 223.084c-81.944-38.118-158.158-37.716-209.34-34.020-61.052 4.41-110.158 21.124-131.742 35.732-13.3 9.006-31.384 5.522-40.39-7.782-9.004-13.302-5.52-31.386 7.782-40.39 34.698-23.486 96.068-40.954 160.162-45.58 10.866-0.784 22.798-1.278 35.646-1.278 55.782 0 126.626 5.316 202.42 40.57 14.564 6.778 20.878 24.074 14.104 38.64-6.776 14.566-24.076 20.872-38.642 14.108zM890.948 266.184c2.786 252.688 28.762 730.206-454.97 691.612-477.6-38.442-350.964-542.968-358.082-711.95-6.308-89.386-35.978-198.648-77.896-309.846h129.1c13.266 47.122 23.024 93.72 27.232 138.15 7.782-5.428 16.108-10.674 24.994-15.7 14.458-8.518 26.884-19.844 40.040-31.834 30.744-28.018 65.59-59.774 133.712-63.752 4.572-0.262 9.174-0.394 13.676-0.394 68.896 0 116.014 30.154 153.878 54.382 18.14 11.612 33.818 21.64 48.564 26.452 41.91 13.12 78.532 34.296 105.904 61.252 4.276 4.208 8.242 8.538 11.962 12.948 15.246-55.878 36.118-118.758 59.288-181.504h275.65c-66.174 102.224-134.436 202.374-133.052 330.184zM124.11 403.648c0 0.016 0 0.030-0.002 0.046-4.746 82.462 34.71 151.832 88.126 154.936 53.412 3.106 100.56-61.228 105.304-143.692 0-0.014 0.004-0.030 0.004-0.044 0.256-4.446 0.368-8.846 0.37-13.206-16.924-4.256-32.192-10.436-45.872-17.63-0.052 0.612-0.092 1.216-0.152 1.83 0 0.008 0 0.018 0 0.026-4.57 46.81-29.572 82.16-55.852 78.958-26.28-3.204-43.88-43.75-39.312-90.558 0-0.010 0.004-0.018 0.004-0.026 1.992-20.408 7.868-38.636 16.042-52.444-2.034-1.604-7.784-5.812-14.406-10.656-4.97-3.634-11.020-8.058-18.314-13.43-19.882 26.094-33.506 63.58-35.94 105.89zM665.26 199.822c-1.9-43.586-58.908-84.592-111.582-101.044l-0.296-0.096c-21.9-7.102-41.428-19.6-62.104-32.83-34.732-22.224-70.646-45.208-122.522-45.208-3.404 0-6.894 0.104-10.326 0.296-47.516 2.778-69.742 23.032-97.88 48.676-14.842 13.526-30.19 27.514-49.976 39.124l-0.424 0.244c-42.706 24.104-69.212 54.082-70.908 80.194-0.842 12.98 4.938 24.218 17.182 33.4 26.636 19.972 44.478 33.022 56.284 41.658 13.11 9.588 17.068 12.48 20 15.264 2.096 1.986 4.364 4.188 6.804 6.562 24.446 23.774 65.36 63.562 128.15 63.562 38.404 0 80.898-14.8 126.17-43.902 21.324-13.878 39.882-20.286 63.38-28.4 16.156-5.578 34.468-11.902 58.992-22.404l0.396-0.164c22.88-9.404 49.896-26.564 48.66-54.932zM652.646 302.194c-4.4 2.214-8.974 4.32-13.744 6.286-22.106 9.456-39.832 15.874-54.534 20.998 8.116 15.894 13.16 35.72 13.624 57.242 0 0.010 0 0.022 0 0.030 1.126 52.374-25.288 94.896-58.996 94.976-33.71 0.078-61.95-42.314-63.076-94.686 0-0.010 0-0.018 0-0.028-0.038-1.714-0.042-3.416-0.020-5.11-20.762 9.552-41.18 16.49-61.166 20.76-0.092 1.968-0.204 3.932-0.244 5.92 0 0.016 0 0.036 0 0.050-1.938 95.412 56.602 174.39 130.754 176.402 74.15 2.014 135.828-73.7 137.772-169.11 0-0.018 0-0.038 0-0.052 0.874-43.146-10.66-82.866-30.37-113.678z" />
<glyph unicode="&#xe62e;" d="M513 192c-132.312 0-261.674 19.372-386.1 57.698l20.248 60.742c117.904-36.158 240.476-54.44 365.852-54.44 16.344 0 32.638 0.328 48.882 0.948 4.226 77.56 14.118 127.052 14.118 127.052s-64 0-192 0c0 175.010 59.818 330.054 124.93 447h-508.93v-766h566.176c-4.672 45.684-6.304 88.86-6.154 127.84-15.632-0.548-31.306-0.84-47.022-0.84zM192 704h64v-128h-64v128zM1024 831h-427.13c-1.948-3.196-3.894-6.414-5.84-9.686-38.416-64.572-68.936-130.758-90.716-196.72-18.206-55.132-30.302-110.232-36.172-164.594h204.858l-18.458-90.834c-0.314-1.616-8.17-42.844-12.2-106.942 81.864 8.126 162.222 24.206 240.514 48.214l20.248-60.742c-85.566-26.356-173.464-43.748-263.052-52.042-0.036-4.376-0.056-8.79-0.042-13.28 0.124-40.63 2.346-80.57 6.602-119.376h381.388v766.002zM832 576h-64v128h64v-128zM587.264-64h78.168c-5.46 21.814-10.188 44.192-14.138 67.086-3.494 20.252-6.382 40.92-8.686 61.914h-76.432c4.232-41.378 10.95-84.802 21.088-129zM688.448 960h-96.396c-25.75-34.87-54.932-78.37-83.12-129h87.938c33.674 55.312 67.164 99.402 91.578 129z" />
<glyph unicode="&#xe62f;" d="M0.35 448l-0.35 312.074 384 52.144v-364.218zM448 821.518l511.872 74.482v-448h-511.872zM959.998 384l-0.126-448-511.872 72.016v375.984zM384 16.164l-383.688 52.594-0.020 315.242h383.708z" />
<glyph unicode="&#xe630;" d="M975.31 382.062c2.812 20.8 4.43 41.946 4.43 63.472 0 258.31-210.542 467.744-470.206 467.744-25.808 0-51.11-2.12-75.732-6.16-44.144 28.768-96.684 45.534-153.224 45.534-155.046 0-280.578-125.616-280.578-280.612 0-56.396 16.598-108.788 45.18-152.778-3.85-24.034-5.818-48.646-5.818-73.718 0-258.352 210.434-467.764 470.17-467.764 29.314 0 57.854 2.854 85.592 7.866 43.1-26.738 93.868-42.296 148.292-42.296 155.004-0.002 280.584 125.646 280.584 280.626-0.006 58.586-17.92 113.056-48.69 158.086zM553.48 100.808c-149.41-7.784-219.328 25.274-283.378 85.382-71.53 67.134-42.796 143.708 15.48 147.602 58.244 3.888 93.214-66.026 124.3-85.472 31.048-19.376 149.188-63.52 211.588 7.816 67.952 77.656-45.188 117.84-128.118 130.004-118.406 17.532-267.9 81.584-256.27 207.814 11.632 126.148 107.164 190.828 207.7 199.952 128.154 11.634 211.582-19.414 277.57-75.72 76.3-65.058 35.016-137.788-13.598-143.64-48.424-5.818-102.808 107.008-209.582 108.704-110.054 1.728-184.434-114.522-48.572-147.568 135.932-33.010 281.5-46.572 333.922-170.834 52.458-124.274-81.508-256.25-231.042-264.040z" />
<glyph unicode="&#xe631;" d="M853.342 960h-682.656c-93.874 0-170.686-76.81-170.686-170.69v-682.622c0-93.938 76.812-170.688 170.686-170.688h682.656c93.876 0 170.658 76.75 170.658 170.69v682.62c0 93.88-76.782 170.69-170.658 170.69zM311.778 293.212h-111.264c-6.702 0-11.708 3.008-14.542 7.584-2.934 4.758-3.084 10.928 0 17.068l118.22 208.626c0.126 0.228 0.126 0.38 0 0.632l-75.23 130.232c-3.112 6.196-3.566 12.314-0.632 17.068 2.834 4.602 8.47 6.954 15.172 6.954h111.264c17.070 0 25.44-10.998 30.978-20.862 0 0 76.040-132.66 76.498-133.392-4.504-7.94-120.118-212.42-120.118-212.42-5.688-10.262-13.704-21.49-30.346-21.49zM837.912 809.462l-246.352-435.58c-0.15-0.23-0.15-0.51 0-0.734l156.862-286.59c3.112-6.168 3.186-12.442 0.226-17.194-2.83-4.576-8.066-7.104-14.766-7.104h-111.14c-17.044 0-25.566 11.326-31.080 21.192 0 0-157.696 289.292-158.1 290.046 7.888 13.96 247.594 439.046 247.594 439.046 5.968 10.724 13.174 21.192 29.788 21.192h112.406c6.702 0 11.962-2.53 14.792-7.106 2.932-4.752 2.856-11.022-0.23-17.168z" />
<glyph unicode="&#xe632;" d="M853.31 960h-682.62c-93.88 0-170.69-76.784-170.69-170.658v-682.656c0-93.876 76.81-170.686 170.69-170.686h682.622c93.938 0 170.688 76.81 170.688 170.686v682.656c0 93.874-76.75 170.658-170.69 170.658zM256 704h512c9.138 0 18.004-1.962 26.144-5.662l-282.144-329.168-282.144 329.17c8.14 3.696 17.006 5.66 26.144 5.66zM192 256v384c0 1.34 0.056 2.672 0.14 4l187.664-218.94-185.598-185.6c-1.444 5.338-2.206 10.886-2.206 16.54zM768 192h-512c-5.654 0-11.202 0.762-16.54 2.206l182.118 182.118 90.422-105.496 90.424 105.494 182.116-182.118c-5.34-1.442-10.886-2.204-16.54-2.204zM832 256c0-5.654-0.762-11.2-2.206-16.54l-185.598 185.598 187.664 218.942c0.084-1.328 0.14-2.66 0.14-4v-384z" />
<glyph unicode="&#xe633;" d="M512 960c-282.77 0-512-229.23-512-512s229.23-512 512-512 512 229.23 512 512-229.23 512-512 512zM256 704h512c9.138 0 18.004-1.962 26.144-5.662l-282.144-329.168-282.144 329.17c8.14 3.696 17.006 5.66 26.144 5.66zM192 256v384c0 1.34 0.056 2.672 0.14 4l187.664-218.942-185.598-185.598c-1.444 5.336-2.206 10.886-2.206 16.54zM768 192h-512c-5.654 0-11.202 0.762-16.54 2.208l182.118 182.118 90.422-105.498 90.424 105.494 182.116-182.12c-5.34-1.44-10.886-2.202-16.54-2.202zM832 256c0-5.654-0.762-11.2-2.206-16.54l-185.6 185.598 187.666 218.942c0.084-1.328 0.14-2.66 0.14-4v-384z" />
<glyph unicode="&#xe634;" d="M778.189 512h-532.429c-28.314 0-30.72-22.938-30.72-51.2s2.406-51.2 30.72-51.2h532.429c28.314 0 30.771 22.938 30.771 51.2s-2.458 51.2-30.771 51.2z" />
<glyph unicode="&#xe635;" d="M778.189 512h-215.040v215.040c0 28.262-22.886 30.72-51.2 30.72-28.262 0-51.2-2.406-51.2-30.72v-215.040h-214.989c-28.314 0-30.72-22.938-30.72-51.2s2.406-51.2 30.72-51.2h214.989v-215.040c0-28.262 22.938-30.72 51.2-30.72 28.314 0 51.2 2.458 51.2 30.72v215.040h215.040c28.314 0 30.771 22.938 30.771 51.2s-2.458 51.2-30.771 51.2z" />
<glyph unicode="&#xe636;" d="M1024 369.556l-512 397.426-512-397.428v162.038l512 397.426 512-397.428zM896 384v-384h-256v256h-256v-256h-256v384l384 288z" />
<glyph unicode="&#xe637;" d="M1024 530.744c0 200.926-58.792 363.938-131.482 365.226 0.292 0.006 0.578 0.030 0.872 0.030h-82.942c0 0-194.8-146.336-475.23-203.754-8.56-45.292-14.030-99.274-14.030-161.502s5.466-116.208 14.030-161.5c280.428-57.418 475.23-203.756 475.23-203.756h82.942c-0.292 0-0.578 0.024-0.872 0.032 72.696 1.288 131.482 164.298 131.482 365.224zM864.824 220.748c-9.382 0-19.532 9.742-24.746 15.548-12.63 14.064-24.792 35.96-35.188 63.328-23.256 61.232-36.066 143.31-36.066 231.124 0 87.81 12.81 169.89 36.066 231.122 10.394 27.368 22.562 49.266 35.188 63.328 5.214 5.812 15.364 15.552 24.746 15.552 9.38 0 19.536-9.744 24.744-15.552 12.634-14.064 24.796-35.958 35.188-63.328 23.258-61.23 36.068-143.312 36.068-231.122 0-87.804-12.81-169.888-36.068-231.124-10.39-27.368-22.562-49.264-35.188-63.328-5.208-5.806-15.36-15.548-24.744-15.548zM251.812 530.744c0 51.95 3.81 102.43 11.052 149.094-47.372-6.554-88.942-10.324-140.34-10.324-67.058 0-67.058 0-67.058 0l-55.466-94.686v-88.17l55.46-94.686c0 0 0 0 67.060 0 51.398 0 92.968-3.774 140.34-10.324-7.236 46.664-11.048 97.146-11.048 149.096zM368.15 317.828l-127.998 24.51 81.842-321.544c4.236-16.634 20.744-25.038 36.686-18.654l118.556 47.452c15.944 6.376 22.328 23.964 14.196 39.084l-123.282 229.152zM864.824 411.27c-3.618 0-7.528 3.754-9.538 5.992-4.87 5.42-9.556 13.86-13.562 24.408-8.962 23.6-13.9 55.234-13.9 89.078s4.938 65.478 13.9 89.078c4.006 10.548 8.696 18.988 13.562 24.408 2.010 2.24 5.92 5.994 9.538 5.994 3.616 0 7.53-3.756 9.538-5.994 4.87-5.42 9.556-13.858 13.56-24.408 8.964-23.598 13.902-55.234 13.902-89.078 0-33.842-4.938-65.478-13.902-89.078-4.004-10.548-8.696-18.988-13.56-24.408-2.008-2.238-5.92-5.992-9.538-5.992z" />
<glyph unicode="&#xe638;" d="M128 32c0 53.019 42.981 96 96 96s96-42.981 96-96c0-53.019-42.981-96-96-96s-96 42.981-96 96zM768 32c0 53.019 42.981 96 96 96s96-42.981 96-96c0-53.019-42.981-96-96-96s-96 42.981-96 96zM960 448v384h-832c0 70.692-57.306 128-128 128v-64c35.29 0 64-28.71 64-64l48.074-412.054c-29.294-23.458-48.074-59.5-48.074-99.946 0-70.694 57.308-128 128-128h768v64h-768c-35.346 0-64 28.654-64 64 0 0.22 0.014 0.436 0.016 0.656l831.984 127.344z" />
<glyph unicode="&#xe639;" d="M847.218 384c35.2 0 71.912 27.692 81.582 61.538l92.836 324.926c9.67 33.844-11.218 61.536-46.418 61.536h-655.218c0 70.692-57.308 128-128 128h-192v-128h192v-544c0-53.020 42.98-96 96-96h608c35.346 0 64 28.654 64 64s-28.654 64-64 64h-576v64h527.218zM320 704h578.806l-54.858-192h-523.948v192zM384 16c0-44-36-80-80-80h-32c-44 0-80 36-80 80v32c0 44 36 80 80 80h32c44 0 80-36 80-80v-32zM960 16c0-44-36-80-80-80h-32c-44 0-80 36-80 80v32c0 44 36 80 80 80h32c44 0 80-36 80-80v-32z" />
<glyph unicode="&#xe63a;" d="M977.582 765.538c-33.984 9.708-69.41-9.97-79.12-43.956l-5.022-17.582h-596.942l-8.992 71.938c-4.004 32.028-31.23 56.062-63.506 56.062h-160c-35.346 0-64-28.654-64-64s28.654-64 64-64h103.502l56.992-455.938c4.004-32.026 31.23-56.062 63.506-56.062h544c28.574 0 53.688 18.944 61.538 46.418l128 448c9.71 33.986-9.97 69.41-43.956 79.12zM512 448v64h127.996v-64h-127.996zM639.996 384v-64h-127.996v64h127.996zM512 576v64h127.996v-64h-127.996zM304.498 640h143.502v-64h-135.502l-8 64zM320.498 512h127.502v-64h-119.502l-8 64zM336.498 384h111.502v-64h-103.502l-8 64zM783.724 320h-79.728v64h98.014l-18.286-64zM820.296 448h-116.3v64h134.586l-18.286-64zM856.868 576h-152.872v64h171.158l-18.286-64zM256 32c0 53.019 42.981 96 96 96s96-42.981 96-96c0-53.019-42.981-96-96-96s-96 42.981-96 96zM640 32c0 53.019 42.981 96 96 96s96-42.981 96-96c0-53.019-42.981-96-96-96s-96 42.981-96 96z" />
<glyph unicode="&#xe63b;" d="M256 896h512v-128h-512zM960 704h-896c-35.2 0-64-28.8-64-64v-320c0-35.2 28.796-64 64-64h192v-256h512v256h192c35.2 0 64 28.8 64 64v320c0 35.2-28.8 64-64 64zM704 64h-384v320h384v-320zM974.4 608c0-25.626-20.774-46.4-46.398-46.4-25.626 0-46.402 20.774-46.402 46.4s20.776 46.4 46.402 46.4c25.626 0 46.398-20.774 46.398-46.4z" />
<glyph unicode="&#xe63c;" d="M992.262 88.604l-242.552 206.294c-25.074 22.566-51.89 32.926-73.552 31.926 57.256 67.068 91.842 154.078 91.842 249.176 0 212.078-171.922 384-384 384-212.076 0-384-171.922-384-384s171.922-384 384-384c95.098 0 182.108 34.586 249.176 91.844-1-21.662 9.36-48.478 31.926-73.552l206.294-242.552c35.322-39.246 93.022-42.554 128.22-7.356s31.892 92.898-7.354 128.22zM384 320c-141.384 0-256 114.616-256 256s114.616 256 256 256 256-114.616 256-256-114.614-256-256-256zM448 768h-128v-128h-128v-128h128v-128h128v128h128v128h-128z" />
<glyph unicode="&#xe63d;" d="M992.262 88.604l-242.552 206.294c-25.074 22.566-51.89 32.926-73.552 31.926 57.256 67.068 91.842 154.078 91.842 249.176 0 212.078-171.922 384-384 384-212.076 0-384-171.922-384-384s171.922-384 384-384c95.098 0 182.108 34.586 249.176 91.844-1-21.662 9.36-48.478 31.926-73.552l206.294-242.552c35.322-39.246 93.022-42.554 128.22-7.356s31.892 92.898-7.354 128.22zM384 320c-141.384 0-256 114.616-256 256s114.616 256 256 256 256-114.616 256-256-114.614-256-256-256zM192 640h384v-128h-384z" />
<glyph unicode="&#xe63e;" d="M592 512h-16v192c0 105.87-86.13 192-192 192h-128c-105.87 0-192-86.13-192-192v-192h-16c-26.4 0-48-21.6-48-48v-480c0-26.4 21.6-48 48-48h544c26.4 0 48 21.6 48 48v480c0 26.4-21.6 48-48 48zM384 64h-128l27.84 139.2c-16.808 11.532-27.84 30.874-27.84 52.8 0 35.346 28.654 64 64 64s64-28.654 64-64c0-21.926-11.032-41.268-27.84-52.8l27.84-139.2zM448 512h-256v192c0 35.29 28.71 64 64 64h128c35.29 0 64-28.71 64-64v-192z" />
<glyph unicode="&#xe63f;" d="M768 896h-128c-105.87 0-192-86.13-192-192v-192h-400c-26.4 0-48-21.6-48-48v-480c0-26.4 21.6-48 48-48h544c26.4 0 48 21.6 48 48v480c0 26.4-21.6 48-48 48h-16v192c0 35.29 28.71 64 64 64h128c35.29 0 64-28.71 64-64v-192h128v192c0 105.87-86.13 192-192 192zM384 64h-128l27.84 139.2c-16.808 11.532-27.84 30.874-27.84 52.8 0 35.346 28.654 64 64 64s64-28.654 64-64c0-21.926-11.032-41.268-27.84-52.8l27.84-139.2z" />
<glyph unicode="&#xe640;" d="M192-64h640l64 704h-768zM640 832v128h-256v-128h-320v-192l64 64h768l64-64v192h-320zM576 832h-128v64h128v-64z" />
<glyph unicode="&#xe641;" d="M1024 384l-128 256h-192v128c0 35.2-28.8 64-64 64h-576c-35.2 0-64-28.8-64-64v-512l64-64h81.166c-10.898-18.832-17.166-40.678-17.166-64 0-70.692 57.308-128 128-128s128 57.308 128 128c0 23.322-6.268 45.168-17.166 64h354.334c-10.898-18.832-17.168-40.678-17.168-64 0-70.692 57.308-128 128-128s128 57.308 128 128c0 23.322-6.27 45.168-17.168 64h81.168v192zM704 384v160h132.668l80-160h-212.668z" />
<glyph unicode="&#xe642;" d="M1024 677.5l-90.506 90.5-178.746-178.752-101.5 101.502 178.75 178.75-90.5 90.5-178.75-178.75-114.748 114.75-86.626-86.624 512.002-512.002 86.624 86.624-114.752 114.752zM274.748 210.746c165.768-165.762 385.194-36.362 519.292 75.464l-443.824 443.824c-111.824-134.096-241.228-353.522-75.468-519.288zM191.998 255.996l127.994-127.996-191.992-191.992-127.996 127.994z" />
<glyph unicode="&#xe643;" d="M697.832 632.952l-64.952 64.922-324.81-324.742c-53.814-53.792-53.814-141.048 0-194.844 53.804-53.792 141.060-53.792 194.874 0l389.772 389.708c89.714 89.662 89.714 235.062 0 324.726-89.666 89.704-235.112 89.704-324.782 0l-409.23-409.178c-0.29-0.304-0.612-0.576-0.876-0.846-125.102-125.096-125.102-327.856 0-452.906 125.054-125.056 327.868-125.056 452.988 0 0.274 0.274 0.516 0.568 0.82 0.876l0.032-0.034 279.332 279.292-64.986 64.92-279.33-279.262c-0.296-0.268-0.564-0.57-0.846-0.844-89.074-89.058-233.98-89.058-323.076 0-89.062 89.042-89.062 233.922 0 322.978 0.304 0.304 0.604 0.582 0.888 0.846l-0.046 0.060 409.28 409.166c53.712 53.738 141.144 53.738 194.886 0 53.712-53.734 53.712-141.148 0-194.84l-389.772-389.7c-17.936-17.922-47.054-17.922-64.972 0-17.894 17.886-17.894 47.032 0 64.92l324.806 324.782z" />
<glyph unicode="&#xe644;" d="M928 384c73 0 32-192-32-192 32 0 0-160-64-160 0-64-64-96-128-96-270.352 0-175.264 67.65-448 96v512c240.922 72.268 480 253.424 480 416 53 0 192-64 0-384 0 0 160 0 192 0 96 0 64-192 0-192zM192 544v-512h64v-32h-128c-35.2 0-64 43.2-64 96v384c0 52.8 28.8 96 64 96h128v-32h-64z" />
<glyph unicode="&#xe645;" d="M96 512c-73 0-32 192 32 192-32 0 0 160 64 160 0 64 64 96 128 96 270.352 0 175.264-67.65 448-96v-512c-240.922-72.268-480-253.424-480-416-53 0-192 64 0 384 0 0-160 0-192 0-96 0-64 192 0 192zM832 352v512h-64v32h128c35.2 0 64-43.2 64-96v-384c0-52.8-28.8-96-64-96h-128v32h64z" />
<glyph unicode="&#xe646;" d="M384 448h-320v128h320v128l192-192-192-192zM1024 960v-832l-384-192v192h-384v256h64v-192h320v576l256 128h-576v-256h-64v320z" />
<glyph unicode="&#xe647;" d="M768 320v128h-320v128h320v128l192-192zM704 384v-256h-320v-192l-384 192v832h704v-320h-64v256h-512l256-128v-576h256v192z" />
<glyph unicode="&#xe648;" d="M842.012 370.52c-13.648 13.446-43.914 20.566-89.972 21.172-31.178 0.344-68.702-2.402-108.17-7.928-17.674 10.198-35.892 21.294-50.188 34.658-38.462 35.916-70.568 85.772-90.576 140.594 1.304 5.12 2.414 9.62 3.448 14.212 0 0 21.666 123.060 15.93 164.666-0.79 5.706-1.274 7.362-2.808 11.796l-1.882 4.834c-5.896 13.592-17.448 27.994-35.566 27.208l-10.916 0.344c-20.2 0-36.664-10.332-40.986-25.774-13.138-48.434 0.418-120.892 24.982-214.738l-6.288-15.286c-17.588-42.876-39.63-86.060-59.078-124.158l-2.528-4.952c-20.46-40.038-39.024-74.026-55.854-102.822l-17.376-9.188c-1.264-0.668-31.044-16.418-38.028-20.644-59.256-35.382-98.522-75.54-105.036-107.416-2.072-10.17-0.53-23.186 10.014-29.214l16.806-8.458c7.29-3.652 14.978-5.502 22.854-5.502 42.204 0 91.2 52.572 158.696 170.366 77.93 25.368 166.654 46.456 244.414 58.090 59.258-33.368 132.142-56.546 178.142-56.546 8.168 0 15.212 0.778 20.932 2.296 8.822 2.336 16.258 7.366 20.792 14.192 8.926 13.432 10.734 31.932 8.312 50.876-0.722 5.624-5.212 12.576-10.070 17.322zM211.646 145.952c7.696 21.042 38.16 62.644 83.204 99.556 2.832 2.296 9.808 8.832 16.194 14.902-47.102-75.124-78.646-105.066-99.398-114.458zM478.434 760.314c13.566 0 21.284-34.194 21.924-66.254s-6.858-54.56-16.158-71.208c-7.702 24.648-11.426 63.5-11.426 88.904 0 0-0.566 48.558 5.66 48.558zM398.852 322.506c9.45 16.916 19.282 34.756 29.33 53.678 24.492 46.316 39.958 82.556 51.478 112.346 22.91-41.684 51.444-77.12 84.986-105.512 4.184-3.542 8.618-7.102 13.274-10.65-68.21-13.496-127.164-29.91-179.068-49.862zM828.904 326.348c-4.154-2.598-16.054-4.1-23.708-4.1-24.706 0-55.272 11.294-98.126 29.666 16.468 1.218 31.562 1.838 45.1 1.838 24.782 0 32.12 0.108 56.35-6.072s24.538-18.734 20.384-21.332zM903.432 760.57l-142.864 142.862c-31.112 31.112-92.568 56.568-136.568 56.568h-480c-44 0-80-36-80-80v-864c0-44 36-80 80-80h736c44 0 80 36 80 80v608c0 44-25.456 105.458-56.568 136.57zM858.178 715.314c3.13-3.13 6.25-6.974 9.28-11.314h-163.458v163.456c4.34-3.030 8.184-6.15 11.314-9.28l142.864-142.862zM896 16c0-8.672-7.328-16-16-16h-736c-8.672 0-16 7.328-16 16v864c0 8.672 7.328 16 16 16h480c4.832 0 10.254-0.61 16-1.704v-254.296h254.296c1.094-5.746 1.704-11.166 1.704-16v-608z" />
<glyph unicode="&#xe649;" d="M639.778 484.108h44.212l-51.012-226.178-66.326 318.010h-106.55l-77.114-318.010-57.816 318.010h-111.394l113.092-511.882h108.838l76.294 302.708 68.256-302.708h100.336l129.63 511.882h-170.446zM903.432 760.57l-142.864 142.862c-31.112 31.112-92.568 56.568-136.568 56.568h-480c-44 0-80-36-80-80v-864c0-44 36-80 80-80h736c44 0 80 36 80 80v608c0 44-25.456 105.458-56.568 136.57zM858.178 715.314c3.13-3.13 6.25-6.974 9.28-11.314h-163.458v163.456c4.34-3.030 8.184-6.15 11.314-9.28l142.864-142.862zM896 16c0-8.672-7.328-16-16-16h-736c-8.672 0-16 7.328-16 16v864c0 8.672 7.328 16 16 16h480c4.832 0 10.254-0.61 16-1.704v-254.296h254.296c1.094-5.746 1.704-11.166 1.704-16v-608z" />
<glyph unicode="&#xe64a;" d="M743.028 576h-135.294l-95.732-141.032-95.74 141.032h-135.288l162.162-242.464-182.974-269.536h262.24v91.576h-60.556l50.156 74.994 111.396-166.57h140.442l-182.976 269.536zM903.432 760.57l-142.864 142.862c-31.112 31.112-92.568 56.568-136.568 56.568h-480c-44 0-80-36-80-80v-864c0-44 36-80 80-80h736c44 0 80 36 80 80v608c0 44-25.456 105.458-56.568 136.57zM858.178 715.314c3.13-3.13 6.25-6.974 9.28-11.314h-163.458v163.456c4.34-3.030 8.184-6.15 11.314-9.28l142.864-142.862zM896 16c0-8.672-7.328-16-16-16h-736c-8.672 0-16 7.328-16 16v864c0 8.672 7.328 16 16 16h480c4.832 0 10.254-0.61 16-1.704v-254.296h254.296c1.094-5.746 1.704-11.166 1.704-16v-608z" />
</font></defs></svg>